%YAML 1.1
%TAG !u! tag:unity3d.com,2011:
--- !u!1 &1373882067194628585
GameObject:
  m_ObjectHideFlags: 0
  m_CorrespondingSourceObject: {fileID: 0}
  m_PrefabInstance: {fileID: 0}
  m_PrefabAsset: {fileID: 0}
  serializedVersion: 6
  m_Component:
  - component: {fileID: 1373882067194628584}
  - component: {fileID: 1373882067194628586}
  - component: {fileID: 1373882067194628587}
  m_Layer: 0
  m_Name: CommandSystemManager
  m_TagString: Untagged
  m_Icon: {fileID: 0}
  m_NavMeshLayer: 0
  m_StaticEditorFlags: 0
  m_IsActive: 1
--- !u!4 &1373882067194628584
Transform:
  m_ObjectHideFlags: 0
  m_CorrespondingSourceObject: {fileID: 0}
  m_PrefabInstance: {fileID: 0}
  m_PrefabAsset: {fileID: 0}
  m_GameObject: {fileID: 1373882067194628585}
  m_LocalRotation: {x: 0, y: 0, z: 0, w: 1}
  m_LocalPosition: {x: 611.93933, y: 376.54657, z: -72.5}
  m_LocalScale: {x: 1, y: 1, z: 1}
  m_Children: []
  m_Father: {fileID: 0}
  m_RootOrder: 0
  m_LocalEulerAnglesHint: {x: 0, y: 0, z: 0}
--- !u!114 &1373882067194628586
MonoBehaviour:
  m_ObjectHideFlags: 0
  m_CorrespondingSourceObject: {fileID: 0}
  m_PrefabInstance: {fileID: 0}
  m_PrefabAsset: {fileID: 0}
  m_GameObject: {fileID: 1373882067194628585}
  m_Enabled: 1
  m_EditorHideFlags: 0
  m_Script: {fileID: 11500000, guid: 1f7ac90058969e84aa1b0d81b52e5b79, type: 3}
  m_Name: 
  m_EditorClassIdentifier: 
  player: {fileID: 0}
  initalCommand:
  - 1
  - 2
  - 3
--- !u!114 &1373882067194628587
MonoBehaviour:
  m_ObjectHideFlags: 0
  m_CorrespondingSourceObject: {fileID: 0}
  m_PrefabInstance: {fileID: 0}
  m_PrefabAsset: {fileID: 0}
  m_GameObject: {fileID: 1373882067194628585}
  m_Enabled: 1
  m_EditorHideFlags: 0
  m_Script: {fileID: 11500000, guid: e5d96e498aefccf488297f744214cfaa, type: 3}
  m_Name: 
  m_EditorClassIdentifier: 
  selectableComSize: 3
  buttonPrefap: {fileID: 8281286358533299373, guid: 97823e82db0146041a2a6173ba7f58d7, type: 3}
  buttonPanel: {fileID: 0}
  selectedActions: {fileID: 0}
  runButton: {fileID: 0}
